[80, 20, 20, [0.0, 0.0]]
[80, 20, 40, [1.0, 20.0]]
[80, 20, 80, [0.0, 20.0]]
[80, 20, 120, [2092.0, 20.0]]
[80, 20, 160, [3665.0, 20.0]]
[80, 40, 40, [0.0, 20.0]]
[80, 40, 80, [0.0, 20.0]]
[80, 40, 160, [0.0, 20.0]]
[80, 40, 240, [2398.0, 20.0]]
[80, 40, 320, [3657.0, 20.0]]
[80, 60, 60, [4344.0, 20.0]]
[80, 60, 120, [6208.0, 17.0]]
[80, 60, 240, [0.0, 20.0]]
[80, 60, 360, [2414.0, 20.0]]
[80, 60, 480, [3644.0, 20.0]]
[80, 80, 80, [7061.0, 20.0]]
[80, 80, 160, [5097.0, 20.0]]
[80, 80, 320, [2220.0, 20.0]]
[80, 80, 480, [2426.0, 20.0]]
[80, 80, 640, [2478.0, 20.0]]
[80, 100, 100, [2536.0, 16.0]]
[80, 100, 200, [5081.0, 18.0]]
[80, 100, 400, [0.0, 20.0]]
[80, 100, 600, [2408.0, 20.0]]
[80, 100, 800, [3668.0, 20.0]]
[80, 120, 120, [4972.0, 17.0]]
[80, 120, 240, [0.0, 20.0]]
[80, 120, 480, [0.0, 20.0]]
[80, 120, 720, [2404.0, 20.0]]
[80, 120, 960, [3743.0, 20.0]]
[80, 140, 140, [2498.0, 20.0]]
[80, 140, 280, [3854.0, 20.0]]
[80, 140, 560, [0.0, 20.0]]
[80, 140, 840, [2476.0, 20.0]]
[80, 140, 1120, [3822.0, 20.0]]
[80, 160, 160, [6120.0, 20.0]]
[80, 160, 320, [6712.0, 17.0]]
[80, 160, 640, [0.0, 20.0]]
[80, 160, 960, [2328.0, 20.0]]
[80, 160, 1280, [3683.0, 20.0]]
[80, 180, 180, [5058.0, 16.0]]
[80, 180, 360, [0.0, 20.0]]
[80, 180, 720, [2146.0, 20.0]]
[80, 180, 1080, [3625.0, 20.0]]
[80, 180, 1440, [4775.0, 20.0]]
[80, 200, 200, [4995.0, 17.0]]
[80, 200, 400, [0.0, 20.0]]
[80, 200, 800, [0.0, 20.0]]
[80, 200, 1200, [2402.0, 20.0]]
[80, 200, 1600, [3572.0, 20.0]]
[80, 220, 220, [2597.0, 20.0]]
[80, 220, 440, [3843.0, 20.0]]
[80, 220, 880, [2210.0, 20.0]]
[80, 220, 1320, [2366.0, 20.0]]
[80, 220, 1760, [3717.0, 20.0]]
[80, 240, 240, [2510.0, 17.0]]
[80, 240, 480, [0.0, 20.0]]
[80, 240, 960, [2190.0, 20.0]]
[80, 240, 1440, [2348.0, 20.0]]
[80, 240, 1920, [3755.0, 20.0]]
[80, 260, 260, [6386.0, 17.0]]
[80, 260, 520, [2584.0, 18.0]]
[80, 260, 1040, [0.0, 20.0]]
[80, 260, 1560, [2506.0, 20.0]]
[80, 260, 2080, [3765.0, 20.0]]
[80, 280, 280, [5021.0, 16.0]]
